<?xml version="1.0" encoding="UTF-8"?>
<svg width="100px" height="78px" viewBox="0 0 100 78" version="1.1" xmlns="http://www.w3.org/2000/svg" xmlns:xlink="http://www.w3.org/1999/xlink">
    <!-- Generator: Sketch 52.3 (67297) - http://www.bohemiancoding.com/sketch -->
    <title>ux-icon</title>
    <desc>Created with Sketch.</desc>
    <g id="Page-1" stroke="none" stroke-width="1" fill="none" fill-rule="evenodd">
        <g id="GitLab-First-Look" transform="translate(-1026.000000, -1264.000000)">
            <g id="ux-icon" transform="translate(1027.000000, 1264.000000)">
                <path d="M22.6289,65.6807 C36.2799,65.6807 45.1119,57.0667 45.1119,45.1677 L45.1119,17.0647 C45.1119,13.9247 43.5069,12.3197 40.3679,12.3197 L34.5279,12.3197 C31.3889,12.3197 29.7829,13.9247 29.7829,17.0647 L29.7829,45.2417 C29.7829,49.5477 26.9369,51.6647 22.5559,51.6647 C18.2489,51.6647 15.4019,49.5477 15.4019,45.1677 L15.4019,17.0647 C15.4019,13.9247 13.7239,12.3197 10.6569,12.3197 L4.7449,12.3197 C1.6789,12.3197 -0.0001,13.9247 -0.0001,17.0647 L-0.0001,45.1677 C-0.0001,57.0667 8.8329,65.6807 22.6289,65.6807" id="Fill-1" fill="#FC6D26"></path>
                <path d="M93.8945,12.3193 L86.8865,12.3193 C84.3315,12.3193 82.5805,13.3403 81.2675,15.7503 L78.4195,21.5163 C76.5215,25.1673 75.2075,28.5243 75.2075,28.5243 L75.0625,28.5243 C75.0625,28.5243 73.7485,25.0203 71.9235,21.5163 L69.1485,15.7503 C67.8355,13.3403 66.0835,12.3193 63.4555,12.3193 L56.5195,12.3193 C52.7245,12.3193 51.3375,14.7283 53.3085,18.0123 L66.0835,39.1823 L53.8925,59.0383 C51.9215,62.3953 53.3085,64.8043 57.2495,64.8043 L63.6015,64.8043 C66.2285,64.8043 67.9805,63.7833 69.2945,61.3743 L71.9235,56.1183 C73.8205,52.6873 75.1345,49.4023 75.1345,49.4023 L75.2815,49.4023 C75.2815,49.4023 76.5955,52.6873 78.4925,56.1913 L81.0465,61.3743 C82.3615,63.7833 84.1135,64.8043 86.6675,64.8043 L93.2385,64.8043 C97.1075,64.8043 98.4945,62.3953 96.4515,59.0383 L84.2595,39.1823 L97.1075,18.0123 C99.0785,14.7283 97.6915,12.3193 93.8945,12.3193" id="Fill-3" fill="#FC6D26"></path>
                <path d="M93.8945,12.3193 L86.8865,12.3193 C84.3315,12.3193 82.5805,13.3403 81.2675,15.7503 L78.4195,21.5163 C77.8475,22.6173 77.3305,23.6883 76.8835,24.6513 L89.2385,30.9783 L97.1075,18.0123 C99.0785,14.7283 97.6915,12.3193 93.8945,12.3193" id="Fill-5" fill="#E24329"></path>
                <path d="M71.9238,21.5166 L69.1488,15.7496 C67.8358,13.3406 66.0838,12.3196 63.4548,12.3196 L56.5198,12.3196 C55.4398,12.3196 54.5618,12.5206 53.8928,12.8746 L72.3318,22.3206 C72.1988,22.0526 72.0628,21.7856 71.9238,21.5166" id="Fill-7" fill="#E24329"></path>
                <path d="M22.6289,65.6807 C29.9339,65.6807 35.8379,63.1987 39.7679,59.0817 L29.5179,47.3247 C28.7209,50.2297 26.1579,51.6647 22.5559,51.6647 C18.2489,51.6647 15.4019,49.5477 15.4019,45.1677 L15.4019,31.1347 L0.6689,14.2347 C0.2309,14.9697 -0.0001,15.9117 -0.0001,17.0647 L-0.0001,45.1677 C-0.0001,57.0667 8.8329,65.6807 22.6289,65.6807" id="Fill-9" fill="#FCA326"></path>
                <path d="M0,17.0645 C0,13.9245 1.679,12.3195 4.745,12.3195 L10.657,12.3195 C13.724,12.3195 15.402,13.9245 15.402,17.0645 L15.402,45.1685 C15.402,49.5475 18.249,51.6655 22.556,51.6655 C26.937,51.6655 29.783,49.5475 29.783,45.2415 L29.783,17.0645 C29.783,13.9245 31.389,12.3195 34.528,12.3195 L40.368,12.3195 C43.507,12.3195 45.112,13.9245 45.112,17.0645 L45.112,45.1685 C45.112,57.0665 36.28,65.6805 22.629,65.6805 C8.833,65.6805 0,57.0665 0,45.1685 L0,17.0645 Z" id="Stroke-11" stroke="#333333" stroke-width="2"></path>
                <path d="M66.083,39.1826 L53.308,18.0126 C51.337,14.7286 52.724,12.3196 56.52,12.3196 L63.454,12.3196 C66.083,12.3196 67.835,13.3406 69.148,15.7496 L71.923,21.5166 C73.747,25.0206 75.062,28.5246 75.062,28.5246 L75.207,28.5246 C75.207,28.5246 76.521,25.1666 78.419,21.5166 L81.267,15.7496 C82.58,13.3406 84.332,12.3196 86.887,12.3196 L93.895,12.3196 C97.69,12.3196 99.077,14.7286 97.106,18.0126 L84.259,39.1826 L96.45,59.0376 C98.493,62.3956 97.106,64.8046 93.237,64.8046 L86.668,64.8046 C84.113,64.8046 82.361,63.7836 81.047,61.3736 L78.492,56.1916 C76.595,52.6876 75.28,49.4026 75.28,49.4026 L75.134,49.4026 C75.134,49.4026 73.82,52.6876 71.923,56.1186 L69.294,61.3736 C67.98,63.7836 66.229,64.8046 63.601,64.8046 L57.25,64.8046 C53.308,64.8046 51.921,62.3956 53.892,59.0376 L66.083,39.1826 Z" id="Stroke-13" stroke="#333333" stroke-width="2"></path>
                <path d="M0,77 L68,77" id="Stroke-15" stroke="#333333" stroke-width="2" stroke-linecap="round" stroke-linejoin="round"></path>
                <path d="M74,77 L88,77" id="Stroke-17" stroke="#333333" stroke-width="2" stroke-linecap="round" stroke-linejoin="round"></path>
                <path d="M94,77 L98,77" id="Stroke-19" stroke="#333333" stroke-width="2" stroke-linecap="round" stroke-linejoin="round"></path>
                <path d="M98,1 L30,1" id="Stroke-21" stroke="#333333" stroke-width="2" stroke-linecap="round" stroke-linejoin="round"></path>
                <path d="M24,1 L10,1" id="Stroke-23" stroke="#333333" stroke-width="2" stroke-linecap="round" stroke-linejoin="round"></path>
                <path d="M4,1 L0,1" id="Stroke-25" stroke="#333333" stroke-width="2" stroke-linecap="round" stroke-linejoin="round"></path>
            </g>
        </g>
    </g>
</svg>